"""mobile phone""","""Computer Video Game Platform"""
"""amstrad mega pc""","""Computer Video Game Platform"""
"""personal computer game""","""Computer Video Game Platform"""
"""amiga""","""Computer Video Game Platform"""
"""l600""","""Computer Video Game Platform"""
"""vg pocket caplet""","""Computer Video Game Platform"""
"""atari 2500""","""Computer Video Game Platform"""
"""symbian os""","""Computer Video Game Platform"""
"""commodore 128""","""Computer Video Game Platform"""
"""neo geo""","""Computer Video Game Platform"""
"""gnu go""","""Computer Video Game Platform"""
"""atari 2800""","""Computer Video Game Platform"""
"""super nintendo entertainment system""","""Computer Video Game Platform"""
"""arcade game""","""Computer Video Game Platform"""
"""ibm personal computer xt""","""Computer Video Game Platform"""
"""xbox""","""Computer Video Game Platform"""
"""apple ii""","""Computer Video Game Platform"""
"""pandora""","""Computer Video Game Platform"""
"""commodore 64 games system""","""Computer Video Game Platform"""
"""amiga cd32""","""Computer Video Game Platform"""
"""gp2x wiz""","""Computer Video Game Platform"""
"""windows 3.0""","""Computer Video Game Platform"""
"""nintendo power""","""Computer Video Game Platform"""
"""sega dreamcast""","""Computer Video Game Platform"""
"""nintendo gamecube""","""Computer Video Game Platform"""
"""pocketfami""","""Computer Video Game Platform"""
"""scummvm""","""Computer Video Game Platform"""
"""magnavox odyssey""","""Computer Video Game Platform"""
"""java platform""","""Computer Video Game Platform"""
"""pdp-10""","""Computer Video Game Platform"""
"""dos""","""Computer Video Game Platform"""
"""amstrad cpc""","""Computer Video Game Platform"""
"""acorn archimedes""","""Computer Video Game Platform"""
"""fm towns""","""Computer Video Game Platform"""
"""wow action max""","""Computer Video Game Platform"""
"""commodore plus/4""","""Computer Video Game Platform"""
"""zx spectrum""","""Computer Video Game Platform"""
"""tandy 1000""","""Computer Video Game Platform"""
"""intellivision""","""Computer Video Game Platform"""
"""gameking""","""Computer Video Game Platform"""
"""sega system 1""","""Computer Video Game Platform"""
"""microvision""","""Computer Video Game Platform"""
"""gametap""","""Computer Video Game Platform"""
"""supergrafx""","""Computer Video Game Platform"""
"""swan crystal""","""Computer Video Game Platform"""
"""amigaos""","""Computer Video Game Platform"""
"""amiga 500""","""Computer Video Game Platform"""
"""pioneer laseractive""","""Computer Video Game Platform"""
"""web browser""","""Computer Video Game Platform"""
"""cp system ii""","""Computer Video Game Platform"""
"""whitestar""","""Computer Video Game Platform"""
"""bleemcast!""","""Computer Video Game Platform"""
"""commodore vic-20""","""Computer Video Game Platform"""
"""unix""","""Computer Video Game Platform"""
"""nintendo 3ds""","""Computer Video Game Platform"""
"""apple pippin""","""Computer Video Game Platform"""
"""wii""","""Computer Video Game Platform"""
"""atari jaguar cd""","""Computer Video Game Platform"""
"""amiga 1200""","""Computer Video Game Platform"""
"""nintendo ique""","""Computer Video Game Platform"""
"""wonderswan color""","""Computer Video Game Platform"""
"""sega g80""","""Computer Video Game Platform"""
"""binary runtime environment for wireless""","""Computer Video Game Platform"""
"""sega naomi""","""Computer Video Game Platform"""
"""atari 2000""","""Computer Video Game Platform"""
"""apex extreme pgc""","""Computer Video Game Platform"""
"""amiga 600""","""Computer Video Game Platform"""
"""playchoice-10""","""Computer Video Game Platform"""
"""bulletin board system""","""Computer Video Game Platform"""
"""z-machine""","""Computer Video Game Platform"""
"""vmu""","""Computer Video Game Platform"""
"""hartung game master""","""Computer Video Game Platform"""
"""game boy advance""","""Computer Video Game Platform"""
"""epoch game pocket computer""","""Computer Video Game Platform"""
"""hyperscan""","""Computer Video Game Platform"""
"""cdtv""","""Computer Video Game Platform"""
"""cross-platform""","""Computer Video Game Platform"""
"""nintendo 64""","""Computer Video Game Platform"""
"""freebsd""","""Computer Video Game Platform"""
"""sega genesis""","""Computer Video Game Platform"""
"""sega system c2""","""Computer Video Game Platform"""
"""atomiswave""","""Computer Video Game Platform"""
"""gp32""","""Computer Video Game Platform"""
"""magnavox odyssey 200""","""Computer Video Game Platform"""
"""sega system 24""","""Computer Video Game Platform"""
"""nec""","""Computer Video Game Platform"""
"""cp/m""","""Computer Video Game Platform"""
"""altimit os""","""Computer Video Game Platform"""
"""turbografx-16""","""Computer Video Game Platform"""
"""cps-1""","""Computer Video Game Platform"""
"""sinclair zx81""","""Computer Video Game Platform"""
"""commodore 64""","""Computer Video Game Platform"""
"""tv scoreboard""","""Computer Video Game Platform"""
"""ti-83 series""","""Computer Video Game Platform"""
"""turboduo""","""Computer Video Game Platform"""
"""gizmondo 2""","""Computer Video Game Platform"""
"""atari 5200""","""Computer Video Game Platform"""
"""pocket pc""","""Computer Video Game Platform"""
"""my vision""","""Computer Video Game Platform"""
"""sega vision""","""Computer Video Game Platform"""
"""action gamemaster""","""Computer Video Game Platform"""
"""world wide web""","""Computer Video Game Platform"""
"""sharp mz""","""Computer Video Game Platform"""
"""freedom of mobile multimedia access""","""Computer Video Game Platform"""
"""dina""","""Computer Video Game Platform"""
"""pc platform""","""Computer Video Game Platform"""
"""windows xp""","""Computer Video Game Platform"""
"""ultravision video arcade system""","""Computer Video Game Platform"""
"""sega model 2""","""Computer Video Game Platform"""
"""konix multisystem""","""Computer Video Game Platform"""
"""source port""","""Computer Video Game Platform"""
"""trs-80 model 1""","""Computer Video Game Platform"""
"""pocketstation""","""Computer Video Game Platform"""
"""namco system 22""","""Computer Video Game Platform"""
"""pdp-1""","""Computer Video Game Platform"""
"""gs/os""","""Computer Video Game Platform"""
"""sega neptune""","""Computer Video Game Platform"""
"""rca studio ii""","""Computer Video Game Platform"""
"""arm architecture""","""Computer Video Game Platform"""
"""acorn electron""","""Computer Video Game Platform"""
"""windows vista""","""Computer Video Game Platform"""
"""irix""","""Computer Video Game Platform"""
"""powerpc""","""Computer Video Game Platform"""
"""ibm pc compatible""","""Computer Video Game Platform"""
"""starpath supercharger""","""Computer Video Game Platform"""
"""mips architecture""","""Computer Video Game Platform"""
"""atari 7800""","""Computer Video Game Platform"""
"""super a'can""","""Computer Video Game Platform"""
"""epoch cassette vision""","""Computer Video Game Platform"""
"""au""","""Computer Video Game Platform"""
"""trs-80""","""Computer Video Game Platform"""
"""edsac""","""Computer Video Game Platform"""
"""playdia""","""Computer Video Game Platform"""
"""dworkin's generic driver""","""Computer Video Game Platform"""
"""sega titan video""","""Computer Video Game Platform"""
"""virtual boy""","""Computer Video Game Platform"""
"""xbox live arcade""","""Computer Video Game Platform"""
"""wine""","""Computer Video Game Platform"""
"""game boy color""","""Computer Video Game Platform"""
"""windows me""","""Computer Video Game Platform"""
"""java virtual machine""","""Computer Video Game Platform"""
"""pc-9801""","""Computer Video Game Platform"""
"""sega model 1""","""Computer Video Game Platform"""
"""atari st""","""Computer Video Game Platform"""
"""ps2 linux""","""Computer Video Game Platform"""
"""psion 3""","""Computer Video Game Platform"""
"""php""","""Computer Video Game Platform"""
"""x window system""","""Computer Video Game Platform"""
"""vii""","""Computer Video Game Platform"""
"""dedicated console""","""Computer Video Game Platform"""
"""atari falcon""","""Computer Video Game Platform"""
"""posix""","""Computer Video Game Platform"""
"""videosmarts""","""Computer Video Game Platform"""
"""casio loopy""","""Computer Video Game Platform"""
"""mac os 9""","""Computer Video Game Platform"""
"""sega vr""","""Computer Video Game Platform"""
"""arcadia 2001""","""Computer Video Game Platform"""
"""nintendo ds lite""","""Computer Video Game Platform"""
"""sega multi-mega/sega cdx""","""Computer Video Game Platform"""
"""sega mega mouse""","""Computer Video Game Platform"""
"""pc-fx""","""Computer Video Game Platform"""
"""hyper neo geo 64""","""Computer Video Game Platform"""
"""microsoft windows""","""Computer Video Game Platform"""
"""lynx""","""Computer Video Game Platform"""
"""mac os 7""","""Computer Video Game Platform"""
"""leisure vision""","""Computer Video Game Platform"""
"""playstation store""","""Computer Video Game Platform"""
"""ms-dos""","""Computer Video Game Platform"""
"""sinclair ql""","""Computer Video Game Platform"""
"""apple-intel architecture""","""Computer Video Game Platform"""
"""fm towns marty""","""Computer Video Game Platform"""
"""lcd games""","""Computer Video Game Platform"""
"""nintendo ds""","""Computer Video Game Platform"""
"""nec pc-6001""","""Computer Video Game Platform"""
"""kde""","""Computer Video Game Platform"""
"""sega ages""","""Computer Video Game Platform"""
"""sega teradrive""","""Computer Video Game Platform"""
"""openbsd""","""Computer Video Game Platform"""
"""namco system 12""","""Computer Video Game Platform"""
"""hikarunix""","""Computer Video Game Platform"""
"""windows mobile professional""","""Computer Video Game Platform"""
"""neo geo pocket""","""Computer Video Game Platform"""
"""sharp x68000""","""Computer Video Game Platform"""
"""nintendo entertainment system""","""Computer Video Game Platform"""
"""windows 3.1x""","""Computer Video Game Platform"""
"""e-reader""","""Computer Video Game Platform"""
"""sega system 18""","""Computer Video Game Platform"""
"""msx""","""Computer Video Game Platform"""
"""sega sg-1000 mark iii""","""Computer Video Game Platform"""
"""trs-80 color computer""","""Computer Video Game Platform"""
"""xavixport gaming console""","""Computer Video Game Platform"""
"""ibm personal computer/at""","""Computer Video Game Platform"""
"""sega master system""","""Computer Video Game Platform"""
"""sharp x1""","""Computer Video Game Platform"""
"""sega nomad""","""Computer Video Game Platform"""
"""nuon""","""Computer Video Game Platform"""
"""n-gage""","""Computer Video Game Platform"""
"""gnu/linux""","""Computer Video Game Platform"""
"""ibm pc""","""Computer Video Game Platform"""
"""plato""","""Computer Video Game Platform"""
"""nemo""","""Computer Video Game Platform"""
"""sega chihiro""","""Computer Video Game Platform"""
"""game & watch""","""Computer Video Game Platform"""
"""amiga 4000""","""Computer Video Game Platform"""
"""telnet""","""Computer Video Game Platform"""
"""adobe flash player""","""Computer Video Game Platform"""
"""personal computer""","""Computer Video Game Platform"""
"""pda""","""Computer Video Game Platform"""
"""atari 2700""","""Computer Video Game Platform"""
"""vectrex""","""Computer Video Game Platform"""
"""ogre engine""","""Computer Video Game Platform"""
"""pc-1512""","""Computer Video Game Platform"""
"""pokÃÂ©mon mini""","""Computer Video Game Platform"""
"""atari""","""Computer Video Game Platform"""
"""apple iigs""","""Computer Video Game Platform"""
"""atari panther""","""Computer Video Game Platform"""
"""atari jaguar""","""Computer Video Game Platform"""
"""nintendo 64dd""","""Computer Video Game Platform"""
"""entex adventure vision""","""Computer Video Game Platform"""
"""golden china""","""Computer Video Game Platform"""
"""mac os""","""Computer Video Game Platform"""
"""cd-i""","""Computer Video Game Platform"""
"""pelican vg pocket""","""Computer Video Game Platform"""
"""convergent technologies operating system""","""Computer Video Game Platform"""
"""fc twin video game system""","""Computer Video Game Platform"""
"""panasonic m2""","""Computer Video Game Platform"""
"""atari cosmos""","""Computer Video Game Platform"""
"""pc-dos""","""Computer Video Game Platform"""
"""yahoo!""","""Computer Video Game Platform"""
"""windows nt""","""Computer Video Game Platform"""
"""cedega""","""Computer Video Game Platform"""
"""ljn video art""","""Computer Video Game Platform"""
"""turbografx-cd""","""Computer Video Game Platform"""
"""tangerine computer systems""","""Computer Video Game Platform"""
"""the internet""","""Computer Video Game Platform"""
"""apple ii plus""","""Computer Video Game Platform"""
"""apple iie""","""Computer Video Game Platform"""
"""nintendo super system""","""Computer Video Game Platform"""
"""apf imagination machine""","""Computer Video Game Platform"""
"""commodore pet""","""Computer Video Game Platform"""
"""amp'd mobile""","""Computer Video Game Platform"""
"""advanced pico beena""","""Computer Video Game Platform"""
"""bbc micro""","""Computer Video Game Platform"""
"""moma eve""","""Computer Video Game Platform"""
"""wonderswan""","""Computer Video Game Platform"""
"""tapwave zodiac""","""Computer Video Game Platform"""
"""directx""","""Computer Video Game Platform"""
"""mac os x""","""Computer Video Game Platform"""
"""beos""","""Computer Video Game Platform"""
"""browser game""","""Computer Video Game Platform"""
"""famicom disk system""","""Computer Video Game Platform"""
"""gp2x""","""Computer Video Game Platform"""
"""cp system iii""","""Computer Video Game Platform"""
"""windows 98""","""Computer Video Game Platform"""
"""risc os""","""Computer Video Game Platform"""
"""playstation 3""","""Computer Video Game Platform"""
"""atari 2600""","""Computer Video Game Platform"""
"""atari mega ste""","""Computer Video Game Platform"""
"""vg pocket max""","""Computer Video Game Platform"""
"""pc booter""","""Computer Video Game Platform"""
"""java applet""","""Computer Video Game Platform"""
"""oscilloscope""","""Computer Video Game Platform"""
"""neo geo cd""","""Computer Video Game Platform"""
"""amstrad gx4000""","""Computer Video Game Platform"""
"""game boy advance sp""","""Computer Video Game Platform"""
"""kddi""","""Computer Video Game Platform"""
"""tatung einstein""","""Computer Video Game Platform"""
"""dragon 32/64""","""Computer Video Game Platform"""
"""windows nt 4.0""","""Computer Video Game Platform"""
"""watara supervision""","""Computer Video Game Platform"""
"""sega model 3""","""Computer Video Game Platform"""
"""apf-m1000""","""Computer Video Game Platform"""
"""solaris operating system""","""Computer Video Game Platform"""
"""playstation""","""Computer Video Game Platform"""
"""sega naomi 2""","""Computer Video Game Platform"""
"""ibm pcjr""","""Computer Video Game Platform"""
"""windows 95""","""Computer Video Game Platform"""
"""gizmondo""","""Computer Video Game Platform"""
"""apextreme""","""Computer Video Game Platform"""
"""windows 9x""","""Computer Video Game Platform"""
"""namco system 21""","""Computer Video Game Platform"""
"""onlive""","""Computer Video Game Platform"""
"""graphing calculator""","""Computer Video Game Platform"""
"""zeebo""","""Computer Video Game Platform"""
"""s60 platform""","""Computer Video Game Platform"""
"""sega system 32""","""Computer Video Game Platform"""
"""windows 2000""","""Computer Video Game Platform"""
"""sega cd""","""Computer Video Game Platform"""
"""sega saturn""","""Computer Video Game Platform"""
"""dvd tv game""","""Computer Video Game Platform"""
"""v cast""","""Computer Video Game Platform"""
"""atari game brain""","""Computer Video Game Platform"""
"""amstrad pcw""","""Computer Video Game Platform"""
"""morphos""","""Computer Video Game Platform"""
"""sega pico""","""Computer Video Game Platform"""
"""sega mega-tech""","""Computer Video Game Platform"""
"""colecovision""","""Computer Video Game Platform"""
"""online game""","""Computer Video Game Platform"""
"""ibm ps/1""","""Computer Video Game Platform"""
"""game.com""","""Computer Video Game Platform"""
"""philips videopac + g7400""","""Computer Video Game Platform"""
"""telegames personal arcade""","""Computer Video Game Platform"""
"""menacer""","""Computer Video Game Platform"""
"""ntt docomo""","""Computer Video Game Platform"""
"""ez station""","""Computer Video Game Platform"""
"""java""","""Computer Video Game Platform"""
"""playstation 2""","""Computer Video Game Platform"""
"""sega system 16""","""Computer Video Game Platform"""
"""computersmarts""","""Computer Video Game Platform"""
"""sega aurora""","""Computer Video Game Platform"""
"""playstation portable""","""Computer Video Game Platform"""
"""atari jaguar ii""","""Computer Video Game Platform"""
"""unix-like""","""Computer Video Game Platform"""
"""mac os x v10.3""","""Computer Video Game Platform"""
"""windows xp professional x64 edition""","""Computer Video Game Platform"""
"""sega x board""","""Computer Video Game Platform"""
"""sega y board""","""Computer Video Game Platform"""
"""the phantom""","""Computer Video Game Platform"""
"""berkeley software distribution""","""Computer Video Game Platform"""
"""xbox 360""","""Computer Video Game Platform"""
"""adobe flash""","""Computer Video Game Platform"""
"""game boy""","""Computer Video Game Platform"""
"""red jade""","""Computer Video Game Platform"""
"""smartphone""","""Computer Video Game Platform"""
"""sam coupÃÂ©""","""Computer Video Game Platform"""
"""sega lindbergh""","""Computer Video Game Platform"""
"""led games""","""Computer Video Game Platform"""
"""handheld tv game""","""Computer Video Game Platform"""
"""lpmud""","""Computer Video Game Platform"""
"""texas instruments ti-99/4a""","""Computer Video Game Platform"""
"""msx2""","""Computer Video Game Platform"""
"""sg-1000""","""Computer Video Game Platform"""
"""neo geo pocket color""","""Computer Video Game Platform"""
"""vtech creativision""","""Computer Video Game Platform"""
"""video arcade""","""Computer Video Game Platform"""
"""ique""","""Computer Video Game Platform"""
"""xgp""","""Computer Video Game Platform"""
"""sega 32x""","""Computer Video Game Platform"""
"""vc 4000""","""Computer Video Game Platform"""
"""macintosh""","""Computer Video Game Platform"""
"""sega game gear""","""Computer Video Game Platform"""
"""fm-7""","""Computer Video Game Platform"""
"""java platform, micro edition""","""Computer Video Game Platform"""
"""nec pc-8801""","""Computer Video Game Platform"""
"""ibm personal system/2""","""Computer Video Game Platform"""
"""palm os""","""Computer Video Game Platform"""
"""atari 8-bit family""","""Computer Video Game Platform"""
"""fairchild channel f""","""Computer Video Game Platform"""
"""net jet""","""Computer Video Game Platform"""
"""handheld electronic game""","""Computer Video Game Platform"""
"""risc pc""","""Computer Video Game Platform"""
"""mobile game""","""Computer Video Game Platform"""
"""bally astrocade""","""Computer Video Game Platform"""
"""emulator""","""Computer Video Game Platform"""
"""magnavox odysseyÃÂ²""","""Computer Video Game Platform"""
"""tangerine microtan 65""","""Computer Video Game Platform"""
"""""","""Computer Video Game Platform"""
