word2vec,feature_extraction
word2vec_tfidf,feature_extraction
pretrainedWord2vec,feature_extraction
pretrainedWord2vec_tfidf,feature_extraction
tf_idf,feature_extraction
sentiment,feature_extraction
svm,classifier
extra_trees,classifier
lorenz_EA_en_GitHub_emotions,gold_standard
lorenz_EA_en_GitHub_emotions_multi,gold_standard
lorenz_EA_en_GitHub_gender,gold_standard
lorenz_SA_en_GitHub_sentiment,gold_standard
lorenz_SA_en_GitHub_speech_act,gold_standard
NER_en_Kaggle_POS+NERSetntences_v1,gold_standard
NER_en_TwitterNLPGitHub_NerTaggedTweets_v1,gold_standard
NER_esp_CoNLL2002_SpanishNewsArticles_v1,gold_standard
NER_nl_CoNLL2002_DutchBelgiumNewspapers_v1,gold_standard
POS_en_AmericanNationalCorpusMASC_Spoken_v1,gold_standard
POS_en_AmericanNationalCorpusMASC_Written#Blogs_v1,gold_standard
POS_en_AmericanNationalCorpusMASC_Written#Emails(enron,spam,w3c)_v1,gold_standard
POS_en_AmericanNationalCorpusMASC_Written#Essays_v1,gold_standard
POS_en_AmericanNationalCorpusMASC_Written#ficlets_v1,gold_standard
POS_en_AmericanNationalCorpusMASC_Written#Fiction_v1,gold_standard
POS_en_AmericanNationalCorpusMASC_Written#GovtDocs_v1,gold_standard
POS_en_AmericanNationalCorpusMASC_Written#Jokes_v1,gold_standard
POS_en_AmericanNationalCorpusMASC_Written#Journal_v1,gold_standard
POS_en_AmericanNationalCorpusMASC_Written#Letters(PhilanthrophicFundraising,SolicitationBrochures)_v1,gold_standard
POS_en_AmericanNationalCorpusMASC_Written#MovieScripts_v1,gold_standard
POS_en_AmericanNationalCorpusMASC_Written#NewsPapers(NYT,WSJ,Unkown)_v1,gold_standard
POS_en_AmericanNationalCorpusMASC_Written#NonFiction_v1,gold_standard
POS_en_AmericanNationalCorpusMASC_Written#Technical_v1,gold_standard
POS_en_AmericanNationalCorpusMASC_Written#TravelGuides_v1,gold_standard
POS_en_AmericanNationalCorpusMASC_Written#Twitter_v1,gold_standard
POS_en_AmericanNationalCorpusOANCWritten_FictionEggan_v1,gold_standard
POS_en_AmericanNationalCorpusOANCWritten_JournalSlate_v1,gold_standard
POS_en_AmericanNationalCorpusOANCWritten_JournalVerbatim_v1,gold_standard
POS_en_AmericanNationalCorpusOANCWritten_LettersICIC_v1,gold_standard
POS_en_AmericanNationalCorpusOANCWritten_NonFictionOUP_v1,gold_standard
POS_en_AmericanNationalCorpusOANCWritten_Technical911Report_v1,gold_standard
POS_en_AmericanNationalCorpusOANCWritten_TechnicalBioMed_v1,gold_standard
POS_en_AmericanNationalCorpusOANCWritten_TechnicalGovernment_v1,gold_standard
POS_en_AmericanNationalCorpusOANCWritten_TechnicalPLOS_v1,gold_standard
POS_en_AmericanNationalCorpusOANCWritten_TravelGuideBerlitz_v1,gold_standard
POS_en_AmericanNationalCorpusOANC_SpokenFaceToFaceCharlotte_v1,gold_standard
POS_en_AmericanNationalCorpusOANC_SpokenTelephoneSwitchboard_v1,gold_standard
POS_en_AmericanNationalCorpus_CoInCo(ConceptsInContext)POSData_v1,gold_standard
POS_en_BrownsDataset_POSForNewsArticles_v1,gold_standard
POS_en_TweeboParserGitHub_PosTaggedTweets_v1,gold_standard
POS_en_TwitterNLPGitHub_PosTaggedTweets_v1,gold_standard
SActA_en_UCIMLRepo_SentenceLabellingInResearchPapers_v1,gold_standard
SActA_en_UCIMLRepo_SentenceLabellingWordList#Aim_v1,gold_standard
SActA_en_UCIMLRepo_SentenceLabellingWordList#Base_v1,gold_standard
SActA_en_UCIMLRepo_SentenceLabellingWordList#Contrast_v1,gold_standard
SActA_en_UCIMLRepo_SentenceLabellingWordList#Own_v1,gold_standard
SActA_en_UCIMLRepo_SentenceLabellingWordList#StopWords_v1,gold_standard
SA_ar_UCIMLRepo_TwitterArabicSentimentAnalysis_v1,gold_standard
SA_en_UCIMLRepo_SentimentLabelledSentences#Yelp,IMDB,AMAZON_v1,gold_standard
TD,QA_en_TwitterNLPGitHub_Architecture#Museums_v1,gold_standard
TD,QA_en_TwitterNLPGitHub_Automotive#Make_v1,gold_standard
TD,QA_en_TwitterNLPGitHub_Automotive#Model_v1,gold_standard
TD,QA_en_TwitterNLPGitHub_Awards_v1,gold_standard
TD,QA_en_TwitterNLPGitHub_Broadcast#TvChannels(MultipleLanguages)_v1,gold_standard
TD,QA_en_TwitterNLPGitHub_Broadcast#TvShow_v1,gold_standard
TD,QA_en_TwitterNLPGitHub_Business#Brands_v1,gold_standard
TD,QA_en_TwitterNLPGitHub_Business#ConsumerCompany_v1,gold_standard
TD,QA_en_TwitterNLPGitHub_Business#ConsumerProduct_v1,gold_standard
TD,QA_en_TwitterNLPGitHub_Business#Products_v1,gold_standard
TD,QA_en_TwitterNLPGitHub_Business#Sponsers_v1,gold_standard
TD,QA_en_TwitterNLPGitHub_Business#VentureFundedCompanies_v1,gold_standard
TD,QA_en_TwitterNLPGitHub_ComputerVideoGames#GameDevelopers_v1,gold_standard
TD,QA_en_TwitterNLPGitHub_ComputerVideoGames#GameNames_v1,gold_standard
TD,QA_en_TwitterNLPGitHub_ComputerVideoGames#GamePlatform_v1,gold_standard
TD,QA_en_TwitterNLPGitHub_Education#Universities_v1,gold_standard
TD,QA_en_TwitterNLPGitHub_English#LowerCaseWords_v1,gold_standard
TD,QA_en_TwitterNLPGitHub_English#StopWords_v1,gold_standard
TD,QA_en_TwitterNLPGitHub_Events#Festivals_v1,gold_standard
TD,QA_en_TwitterNLPGitHub_Government#GovernmentAgencies_v1,gold_standard
TD,QA_en_TwitterNLPGitHub_Internet#Website_v1,gold_standard
TD,QA_en_TwitterNLPGitHub_Location#Country_v1,gold_standard
TD,QA_en_TwitterNLPGitHub_Location#LocationNames_v1,gold_standard
TD,QA_en_TwitterNLPGitHub_Location#Venues_v1,gold_standard
TD,QA_en_TwitterNLPGitHub_Names#FirstNames_v1,gold_standard
TD,QA_en_TwitterNLPGitHub_Names#FullNames_v1,gold_standard
TD,QA_en_TwitterNLPGitHub_Names#LastNames_v1,gold_standard
TD,QA_en_TwitterNLPGitHub_Sports#SportsLeagues_v1,gold_standard
TD,QA_en_TwitterNLPGitHub_Sports#SportsTeams_v1,gold_standard
TD,QA_en_TwitterNLPGitHub_Time#Holiday_v1,gold_standard
TD,QA_en_TwitterNLPGitHub_Time#RecurringEvent_v1,gold_standard
TD,QA_en_TwitterNLPGitHub_Transportation#Roads_v1,gold_standard
TD,QA_multiple_TwitterNLPGitHub_Newspapers_v1,gold_standard