Total number of pos tagged words: 74386



++++++++++++++++ORIGINAL DESCRIPTION+++++++++++++++++++++++++
+++++++++++++++++++++++++++++++++++++++++++++++++++++++++++++
+++++++++++++++++++++++++++++++++++++++++++++++++++++++++++++
+++++++++++++++++++++++++++++++++++++++++++++++++++++++++++++
+++++++++++++++++++++++++++++++++++++++++++++++++++++++++++++
+++++++++++++++++++++++++++++++++++++++++++++++++++++++++++++
The Open ANC

The the open portion of the American National Corpus 
(OANC) contains approximately 15 millions words from 
the full corpus. The following corpora are included:

Written
- Eggan (fiction)